295875 578012
658484 474096
39387 377607
244444 392438
786050 669774
434982 705594
49340 785849
932968 456040
191704 604638
765767 919241
257771 622077
439479 836772
656618 233916
507910 37720
465223 534766
504814 527920
528432 789204
865626 450857
147420 900363
337450 392789
23934 279593
26810 355104
577574 638388
461845 516494
819440 6871
639264 277312
506085 809785
42558 552107
531057 417506
72169 708979
969193 219610
531663 617598
342252 430021
974771 463506
518215 201442
751091 373361
385497 270117
916828 701541
731070 577130
708077 365693
698780 533734
269900 562027
507673 559280
139400 28070
913191 596901
371892 230566
527452 458823
128595 870681
281146 954782
747221 351545
508651 990799
65717 789454
527213 910888
628325 45784
313617 659477
811138 840336
874445 683025
877693 608472
715517 518474
100341 863308
567370 307901
993945 78494
975389 879907
396523 940144
835639 362525
165388 551196
809406 462159
839640 138953
657521 293403
771509 825269
851928 684892
704441 880368
67908 817591
667427 921343
391834 353672
153110 95214
831930 928633
4981 722718
973192 467799
801917 932792
502060 577304
999382 504985
230620 449299
202441 75454
322248 449835
608588 603031
676082 246936
593146 254818
974786 829347
888193 987001
485289 164077
975021 605657
721329 659195
925928 992111
666861 538502
973063 480066
15383 418288
284972 359525
720956 413563
664007 729413
371382 174457
123392 88516
226049 411276
45499 513653
744563 931879
284990 974263
682674 633873
131247 244836
547525 22709
837920 134135
179461 88524
127256 474803
349635 798690
855649 585703
989438 725331
89353 166975
28860 998149
445211 569096
269142 515401
538286 98832
52113 721630
718992 85192
602395 88587
724098 930309
925423 501953
463715 768842
406317 637310
381313 197857
284547 17899
564914 852799
956854 273692
211107 248672
493136 491637
813955 840913
143461 653124
171403 675623
217154 4203
509524 616377
165930 282938
170479 781855
387734 564420
997238 616732
451789 863097
178129 319751
290004 997887
646596 260175
94621 64976
983250 872534
536651 647961
356517 165064
346887 644018
840112 156361
592159 422567
741169 693170
417220 57122
668708 416648
475477 933934
548174 268724
873002 14496
657068 785221
619280 118229
525725 978911
814341 160140
155042 535264
388129 116461
49138 772849
653834 577995
236064 558198
994105 957421
469771 989597
168459 163357
977991 901502
612282 969192
846958 340818
441926 176565
476184 893141
876863 449874
863419 224325
586309 948265
994799 266699
393667 693674
656577 34636
5372 757933
504156 960174
903604 876660
489100 678051
133735 729851
483094 831446
370477 853016
527254 69081
885611 156894
306803 32051
944582 984175
95903 250705
629757 399023
957686 715890
816269 989542
464202 727258
210523 713687
336482 934643
504108 222170
561739 36486
235784 210167
988952 140057
951685 136748
544632 318735
23221 385448
890722 802869
363432 938643
319803 704800
716976 735996
94851 758689
668311 71177
94726 422220
943381 754136
225231 72172
55325 388923
480172 164918
852194 438
366678 33046
504484 105227
372298 404687
12923 472286
713913 962580
575295 397684
570642 437392
95439 364557
742742 348097
144344 828721
589136 892595
253510 430810
114448 988444
195764 470139
92932 710481
484711 322353
599842 404320
678416 284680
651961 233583
646427 288090
987921 91826
296717 856206
342388 597022
623432 656703
317050 744674
613459 917237
309498 495767
